…
``` r
bayes_R2(m_2, probs = c(0.05, 0.5, 0.95),
         re_formula = 1 ~ 1)
```

    ##     Estimate  Est.Error        Q5       Q50       Q95
    ## R2 0.7896167 0.03690937 0.7144656 0.8015481 0.8174254

Posteriors

``` r
draws2
```

    ## # A tibble: 45 × 10
    ##    variable     mean  median     sd    mad       q5    q95  rhat ess_b…¹ ess_t…²
    ##    <chr>       <dbl>   <dbl>  <dbl>  <dbl>    <dbl>  <dbl> <dbl>   <dbl>   <dbl>
    ##  1 b_Interc… -0.831  -0.835  0.112  0.101  -1.00    -0.637  1.00   3467.  2954. 
    ##  2 b_target…  0.103   0.102  0.0740 0.0722 -0.0153   0.232  1.02    290.    65.5
    ##  3 b_exposi… -0.367  -0.366  0.0964 0.100  -0.528   -0.211  1.01    560.  1005. 
    ##  4 b_sand_r…  0.183   0.184  0.0861 0.0851  0.0441   0.325  1.00   2222.  5335. 
    ##  5 b_sand_r…  0.258   0.258  0.0840 0.0850  0.119    0.394  1.00   3756.  7229. 
    ##  6 b_survey…  1.23    1.26   0.186  0.137   0.852    1.47   1.02    165.    40.8
    ##  7 b_survey…  1.53    1.53   0.177  0.127   1.24     1.78   1.03    133.    34.2
    ##  8 b_survey…  1.65    1.66   0.174  0.142   1.31     1.89   1.02    207.   125. 
    ##  9 b_substr…  0.0592  0.0580 0.0457 0.0449 -0.0152   0.135  1.00   5583.  5825. 
    ## 10 b_seed_d…  0.101   0.100  0.0599 0.0625  0.00301  0.200  1.01   2144.  9112. 
    ## # … with 35 more rows, and abbreviated variable names ¹​ess_bulk, ²​ess_tail
…
