…
  mutate(
    survey_year_fct = factor(survey_year),
    botanist_year = str_c(survey_year, botanist, exposition, sep = " "),
    botanist_year = factor(botanist_year),
    id = factor(id),
    n = persistence / 100
  ) %>%
  select(
    id, plot, site, exposition, sand_ratio, substrate_depth, target_type,
    seed_density, survey_year_fct, survey_year, botanist_year, n
  )
sites
```

    ## # A tibble: 1,152 × 12
    ##    id        plot  site  expos…¹ sand_…² subst…³ targe…⁴ seed_…⁵ surve…⁶ surve…⁷
    ##    <fct>     <fct> <fct> <fct>   <fct>   <fct>   <fct>   <fct>   <fct>   <chr>  
    ##  1 L1_01_20… L1_01 1     south   0       15      hay_me… 4       2018    2018   
    ##  2 L1_01_20… L1_01 1     south   0       15      hay_me… 4       2019    2019   
    ##  3 L1_01_20… L1_01 1     south   0       15      hay_me… 4       2020    2020   
    ##  4 L1_01_20… L1_01 1     south   0       15      hay_me… 4       2021    2021   
    ##  5 L1_02_20… L1_02 1     south   0       15      dry_gr… 4       2018    2018   
    ##  6 L1_02_20… L1_02 1     south   0       15      dry_gr… 4       2019    2019   
    ##  7 L1_02_20… L1_02 1     south   0       15      dry_gr… 4       2020    2020   
    ##  8 L1_02_20… L1_02 1     south   0       15      dry_gr… 4       2021    2021   
    ##  9 L1_03_20… L1_03 1     south   0       15      dry_gr… 8       2018    2018   
    ## 10 L1_03_20… L1_03 1     south   0       15      dry_gr… 8       2019    2019   
    ## # … with 1,142 more rows, 2 more variables: botanist_year <fct>, n <dbl>, and
    ## #   abbreviated variable names ¹​exposition, ²​sand_ratio, ³​substrate_depth,
    ## #   ⁴​target_type, ⁵​seed_density, ⁶​survey_year_fct, ⁷​survey_year
…
