…
Posteriors of chosen model

``` r
draws1
```

    ## # A tibble: 70 × 10
    ##    varia…¹    mean  median     sd    mad       q5      q95  rhat ess_b…² ess_t…³
    ##    <chr>     <dbl>   <dbl>  <dbl>  <dbl>    <dbl>    <dbl> <dbl>   <dbl>   <dbl>
    ##  1 b_Inte… -0.678  -0.678  0.0949 0.0939 -0.836   -5.23e-1  1.00   5620.   7282.
    ##  2 b_sand…  0.184   0.183  0.103  0.104   0.0142   3.54e-1  1.00   4956.   7020.
    ##  3 b_sand…  0.161   0.162  0.104  0.104  -0.00906  3.34e-1  1.00   4749.   7063.
    ##  4 b_targ…  0.0219  0.0233 0.102  0.101  -0.145    1.90e-1  1.00   3964.   6678.
    ##  5 b_expo… -0.390  -0.398  0.956  0.957  -1.96     1.16e+0  1.00   8893.   8547.
    ##  6 b_surv…  0.764   0.753  1.25   1.26   -1.29     2.82e+0  1.00   9685.   9376.
    ##  7 b_surv…  1.04    1.04   1.05   1.06   -0.701    2.76e+0  1.00   9203.   9453.
    ##  8 b_surv…  1.03    1.03   1.28   1.29   -1.09     3.15e+0  1.00   9148.   9344.
    ##  9 b_subs… -0.0831 -0.0829 0.0507 0.0504 -0.167    1.06e-4  1.00   9531.   8645.
    ## 10 b_seed…  0.110   0.110  0.0509 0.0510  0.0244   1.92e-1  1.00   9792.   9571.
    ## # … with 60 more rows, and abbreviated variable names ¹​variable, ²​ess_bulk,
    ## #   ³​ess_tail
…
