…
Posteriors of chosen model

``` r
draws1
```

    ## # A tibble: 70 × 10
    ##    variable      mean  median     sd    mad      q5    q95  rhat ess_b…¹ ess_t…²
    ##    <chr>        <dbl>   <dbl>  <dbl>  <dbl>   <dbl>  <dbl> <dbl>   <dbl>   <dbl>
    ##  1 b_Interce…  50.0    50.0    1.95   1.87   46.8   53.1    1.00   6244.   6831.
    ##  2 b_sand_ra…  15.2    15.2    1.90   1.90   12.1   18.4    1.00   5964.   8005.
    ##  3 b_sand_ra…  11.4    11.4    1.93   1.94    8.28  14.7    1.00   5439.   7820.
    ##  4 b_target_…  -0.124  -0.102  1.86   1.86   -3.25   2.92   1.00   5060.   7249.
    ##  5 b_exposit… -16.8   -16.8    9.53   9.46  -32.6   -0.894  1.00   8754.   8549.
    ##  6 b_survey_…  14.5    14.5   12.6   12.5    -6.34  35.3    1.00   9667.   8937.
    ##  7 b_survey_…  22.2    22.1   10.6   10.5     4.96  39.7    1.00   9337.   9548.
    ##  8 b_survey_…  18.0    18.1   12.8   12.8    -3.20  38.7    1.00   8857.   8351.
    ##  9 b_substra…   1.01    1.01   0.987  0.982  -0.605  2.64   1.00   9546.   9093.
    ## 10 b_seed_de…  -0.350  -0.354  0.993  1.00   -1.96   1.28   1.00   9837.   9408.
    ## # … with 60 more rows, and abbreviated variable names ¹​ess_bulk, ²​ess_tail
…
