…
``` r
bayes_R2(m_1, probs = c(0.05, 0.5, 0.95),
         re_formula = 1 ~ 1)
```

    ##     Estimate   Est.Error        Q5       Q50       Q95
    ## R2 0.8485503 0.003776198 0.8419768 0.8487802 0.8542766

Posteriors

``` r
draws1
```

    ## # A tibble: 50 × 10
    ##    variable       mean  median    sd   mad      q5     q95  rhat ess_b…¹ ess_t…²
    ##    <chr>         <dbl>   <dbl> <dbl> <dbl>   <dbl>   <dbl> <dbl>   <dbl>   <dbl>
    ##  1 b_Intercept  47.9    47.9   1.75  1.70   45.1    50.8    1.00   5241.   7879.
    ##  2 b_target_t…  -1.20   -1.19  1.91  1.93   -4.37    1.92   1.00   4223.   7075.
    ##  3 b_expositi… -16.1   -16.1   1.91  1.89  -19.2   -12.9    1.00   3868.   6712.
    ##  4 b_sand_rat…   7.74    7.74  1.95  1.92    4.50   10.9    1.00   4770.   7466.
    ##  5 b_sand_rat…   7.25    7.24  1.97  1.98    3.97   10.5    1.00   4965.   7147.
    ##  6 b_survey_y…  27.9    27.9   1.78  1.76   25.0    30.8    1.00   4876.   7111.
    ##  7 b_survey_y…  31.2    31.2   1.76  1.75   28.4    34.1    1.00   4880.   7262.
    ##  8 b_survey_y…  27.3    27.3   1.76  1.76   24.4    30.2    1.00   4394.   7172.
    ##  9 b_substrat…  -0.398  -0.399 0.536 0.535  -1.29    0.485  1.00   9735.   8923.
    ## 10 b_seed_den…   0.726   0.725 0.542 0.540  -0.157   1.62   1.00   9253.   9040.
    ## # … with 40 more rows, and abbreviated variable names ¹​ess_bulk, ²​ess_tail
…
