…
    )
  ) %>%
  filter(reference == "2018" | reference == "2019" | reference == "2020" |
           reference == "2021") %>%
  mutate(
    survey_year_fct = factor(survey_year),
    survey_year = as.numeric(survey_year),
    botanist_year = str_c(survey_year, botanist, exposition, sep = " "),
    botanist_year = factor(botanist_year),
    n = recovery_completeness
    )
sites
```

    ## # A tibble: 1,152 × 26
    ##    id         plot  site  esy   refere…¹ expos…² sand_…³ subst…⁴ targe…⁵ seed_…⁶
    ##    <fct>      <fct> <fct> <chr> <chr>    <fct>   <fct>   <fct>   <fct>   <fct>  
    ##  1 L1_01_2018 L1_01 1     V37   2018     south   0       15      hay_me… 4      
    ##  2 L1_01_2019 L1_01 1     V37   2019     south   0       15      hay_me… 4      
    ##  3 L1_01_2020 L1_01 1     V37   2020     south   0       15      hay_me… 4      
    ##  4 L1_01_2021 L1_01 1     R22   2021     south   0       15      hay_me… 4      
    ##  5 L1_02_2018 L1_02 1     V37   2018     south   0       15      dry_gr… 4      
    ##  6 L1_02_2019 L1_02 1     V37   2019     south   0       15      dry_gr… 4      
    ##  7 L1_02_2020 L1_02 1     V37   2020     south   0       15      dry_gr… 4      
    ##  8 L1_02_2021 L1_02 1     R22   2021     south   0       15      dry_gr… 4      
    ##  9 L1_03_2018 L1_03 1     V37   2018     south   0       15      dry_gr… 8      
    ## 10 L1_03_2019 L1_03 1     R     2019     south   0       15      dry_gr… 8      
    ## # … with 1,142 more rows, 16 more variables: survey_year <dbl>,
    ## #   longitude <dbl>, latitude <dbl>, elevation <dbl>, plot_size <dbl>,
    ## #   botanist <chr>, givd_id <chr>, source <chr>, NMDS1 <dbl>, NMDS2 <dbl>,
    ## #   mean_reference <dbl>, sd_reference <dbl>, recovery_completeness <dbl>,
    ## #   survey_year_fct <fct>, botanist_year <fct>, n <dbl>, and abbreviated
    ## #   variable names ¹​reference, ²​exposition, ³​sand_ratio, ⁴​substrate_depth,
    ## #   ⁵​target_type, ⁶​seed_density
…
