…
Posteriors of chosen model

``` r
draws1
```

    ## # A tibble: 77 × 10
    ##    varia…¹     mean   median     sd    mad      q5     q95  rhat ess_b…² ess_t…³
    ##    <chr>      <dbl>    <dbl>  <dbl>  <dbl>   <dbl>   <dbl> <dbl>   <dbl>   <dbl>
    ##  1 b_Inte… -1.11e+0 -1.11e+0 0.0371 0.0367 -1.17   -1.05    1.00   3356.   6035.
    ##  2 b_sand…  1.88e-1  1.88e-1 0.0371 0.0371  0.128   0.249   1.00   2524.   4607.
    ##  3 b_sand…  1.35e-1  1.35e-1 0.0376 0.0377  0.0725  0.196   1.00   2439.   4891.
    ##  4 b_targ… -1.72e-1 -1.72e-1 0.0374 0.0374 -0.233  -0.110   1.00   2479.   5042.
    ##  5 b_expo… -3.04e-1 -3.04e-1 0.474  0.471  -1.08    0.471   1.00   5491.   7546.
    ##  6 b_surv…  3.83e-1  3.87e-1 0.619  0.626  -0.628   1.39    1.00   7315.   8333.
    ##  7 b_surv…  6.13e-1  6.07e-1 0.527  0.521  -0.249   1.49    1.00   5811.   8108.
    ##  8 b_surv…  5.86e-1  5.85e-1 0.646  0.654  -0.468   1.65    1.00   7807.   8343.
    ##  9 b_subs…  9.85e-3  1.01e-2 0.0237 0.0233 -0.0289  0.0482  1.00   5419.   7399.
    ## 10 b_seed… -7.15e-5 -1.08e-5 0.0236 0.0239 -0.0386  0.0380  1.00   5337.   7856.
    ## # … with 67 more rows, and abbreviated variable names ¹​variable, ²​ess_bulk,
    ## #   ³​ess_tail
…
