…
``` r
bayes_R2(m_1, probs = c(0.05, 0.5, 0.95),
         re_formula = 1 ~ 1)
```

    ##     Estimate   Est.Error        Q5       Q50       Q95
    ## R2 0.8080202 0.004573187 0.8002889 0.8082438 0.8151444

Posteriors of chosen model

``` r
draws1
```

    ## # A tibble: 65 × 10
    ##    variable           mean   median     sd    mad      q5      q95  rhat ess_b…¹
    ##    <chr>             <dbl>    <dbl>  <dbl>  <dbl>   <dbl>    <dbl> <dbl>   <dbl>
    ##  1 b_Intercept    -0.678   -0.678   0.0907 0.0895 -0.829  -5.30e-1  1.00   6245.
    ##  2 b_sand_ratio25  0.151    0.151   0.0984 0.0976 -0.0100  3.15e-1  1.00   5437.
    ##  3 b_sand_ratio50  0.134    0.135   0.0984 0.0989 -0.0287  2.93e-1  1.00   5723.
    ##  4 b_target_type…  0.00175  0.00156 0.0965 0.0965 -0.157   1.62e-1  1.00   4965.
    ##  5 b_expositions… -0.654   -0.653   0.105  0.105  -0.827  -4.84e-1  1.00   5204.
    ##  6 b_survey_year…  0.816    0.809   0.605  0.613  -0.179   1.81e+0  1.00   9633.
    ##  7 b_survey_year…  1.02     1.02    0.588  0.591   0.0429  1.99e+0  1.00   9892.
    ##  8 b_survey_year…  0.918    0.924   0.713  0.712  -0.245   2.09e+0  1.00   9129.
    ##  9 b_substrate_d… -0.0828  -0.0827  0.0509 0.0508 -0.166   9.93e-4  1.00   9159.
    ## 10 b_seed_densit…  0.108    0.107   0.0510 0.0511  0.0260  1.93e-1  1.00   9632.
    ## # … with 55 more rows, 1 more variable: ess_tail <dbl>, and abbreviated
    ## #   variable name ¹​ess_bulk
…
