…
Posteriors of chosen model

``` r
draws1
```

    ## # A tibble: 70 × 10
    ##    variable       mean  median     sd    mad      q5   q95  rhat ess_b…¹ ess_t…²
    ##    <chr>         <dbl>   <dbl>  <dbl>  <dbl>   <dbl> <dbl> <dbl>   <dbl>   <dbl>
    ##  1 b_Intercept  50.1    50.2    1.95   1.85   46.9   53.2   1.00   5606.   6203.
    ##  2 b_sand_rat…  15.1    15.1    1.91   1.86   11.9   18.3   1.00   4931.   7524.
    ##  3 b_sand_rat…  11.3    11.2    1.92   1.91    8.08  14.4   1.00   4902.   7581.
    ##  4 b_target_t…  -0.243  -0.234  1.86   1.84   -3.31   2.85  1.00   4570.   7180.
    ##  5 b_expositi… -13.3   -13.3    9.60   9.67  -29.0    2.41  1.00   7612.   8942.
    ##  6 b_survey_y…  11.5    11.6   12.5   12.4    -8.91  32.1   1.00   9056.   9206.
    ##  7 b_survey_y…  18.8    18.9   10.6   10.7     1.41  36.0   1.00   8786.   8643.
    ##  8 b_survey_y…  11.3    11.4   12.8   12.7    -9.79  32.3   1.00   9672.   9090.
    ##  9 b_substrat…   0.987   0.979  0.989  0.997  -0.625  2.63  1.00   8776.   9431.
    ## 10 b_seed_den…  -0.364  -0.367  0.992  0.989  -2.00   1.27  1.00   9175.   9305.
    ## # … with 60 more rows, and abbreviated variable names ¹​ess_bulk, ²​ess_tail
…
