…
``` r
bayes_R2(m_1, probs = c(0.05, 0.5, 0.95),
         re_formula = 1 ~ 1)
```

    ##     Estimate  Est.Error        Q5     Q50       Q95
    ## R2 0.8489146 0.00379379 0.8423528 0.84909 0.8547896

Posteriors

``` r
draws1
```

    ## # A tibble: 50 × 10
    ##    variable        mean   median      sd     mad       q5      q95  rhat ess_b…¹
    ##    <chr>          <dbl>    <dbl>   <dbl>   <dbl>    <dbl>    <dbl> <dbl>   <dbl>
    ##  1 b_Intercept  0.525    0.525   0.0182  0.0179   0.495    0.554    1.00   4259.
    ##  2 b_target_t…  0.0134   0.0135  0.0208  0.0209  -0.0206   0.0475   1.00   3120.
    ##  3 b_expositi…  0.157    0.157   0.0211  0.0214   0.122    0.191    1.00   3203.
    ##  4 b_sand_rat… -0.0809  -0.0806  0.0209  0.0207  -0.116   -0.0470   1.00   3764.
    ##  5 b_sand_rat… -0.0769  -0.0769  0.0209  0.0210  -0.111   -0.0425   1.00   4135.
    ##  6 b_survey_y… -0.285   -0.285   0.0188  0.0187  -0.315   -0.254    1.00   3931.
    ##  7 b_survey_y… -0.319   -0.319   0.0188  0.0190  -0.350   -0.287    1.00   3982.
    ##  8 b_survey_y… -0.279   -0.279   0.0187  0.0185  -0.310   -0.248    1.00   3735.
    ##  9 b_substrat…  0.00380  0.00381 0.00548 0.00545 -0.00517  0.0129   1.00   9776.
    ## 10 b_seed_den… -0.00730 -0.00728 0.00541 0.00535 -0.0162   0.00154  1.00   9983.
    ## # … with 40 more rows, 1 more variable: ess_tail <dbl>, and abbreviated
    ## #   variable name ¹​ess_bulk
…
