…
``` r
bayes_R2(m_2, probs = c(0.05, 0.5, 0.95),
         re_formula = 1 ~ 1)
```

    ##     Estimate   Est.Error        Q5       Q50       Q95
    ## R2 0.8077646 0.004572131 0.8000053 0.8079031 0.8148681

Posteriors

``` r
draws2
```

    ## # A tibble: 72 × 10
    ##    varia…¹     mean   median     sd    mad      q5     q95  rhat ess_b…² ess_t…³
    ##    <chr>      <dbl>    <dbl>  <dbl>  <dbl>   <dbl>   <dbl> <dbl>   <dbl>   <dbl>
    ##  1 b_Inte… -0.671   -0.671   0.0964 0.0919 -0.830  -0.515   1.00   5393.   7252.
    ##  2 b_sand…  0.153    0.154   0.0981 0.0982 -0.0103  0.312   1.00   4754.   6941.
    ##  3 b_sand…  0.139    0.139   0.0984 0.0978 -0.0215  0.305   1.00   5261.   7741.
    ##  4 b_targ…  0.00572  0.00509 0.0973 0.0977 -0.154   0.167   1.00   4343.   7133.
    ##  5 b_expo… -0.638   -0.638   0.113  0.114  -0.825  -0.453   1.00   4694.   7528.
    ##  6 b_surv…  0.819    0.806   0.607  0.609  -0.162   1.83    1.00   9830.   9415.
    ##  7 b_surv…  1.04     1.05    0.582  0.575   0.0991  2.00    1.00   9118.   8897.
    ##  8 b_surv…  0.911    0.914   0.718  0.726  -0.268   2.09    1.00   8838.   8496.
    ##  9 b_subs… -0.0982  -0.0983  0.0662 0.0658 -0.206   0.0116  1.00   8158.   9023.
    ## 10 b_seed…  0.0766   0.0761  0.0658 0.0657 -0.0307  0.186   1.00   7470.   8801.
    ## # … with 62 more rows, and abbreviated variable names ¹​variable, ²​ess_bulk,
    ## #   ³​ess_tail
…
